<svg width="112" height="107" viewBox="0 0 112 107" fill="none" xmlns="http://www.w3.org/2000/svg">
<path d="M38.3803 10.807C45.9258 -3.24235 66.0742 -3.24238 73.6196 10.807L109.458 77.537C116.614 90.861 106.963 107 91.8387 107H20.1613C5.03732 107 -4.61426 90.861 2.54165 77.537L38.3803 10.807Z" fill="#2C0AA6"/>
</svg>
